{"photos":{"page":1,"pages":10528,"perpage":60,"total":631652,"photo":[{"id":"51495289885","owner":"190864993@N07","secret":"438989bb4f","server":"65535","farm":66,"title":"| m i n n e h a h a | f a l l s |","ispublic":1,"isfriend":0,"isfamily":0},{"id":"51493567562","owner":"154217310@N07","secret":"2a02ffb8b2","server":"65535","farm":66,"title":"Lookout Lake","ispublic":1,"isfriend":0,"isfamily":0},{"id":"51494365271","owner":"11438529@N03","secret":"bc8e61e657","server":"65535","farm":66,"title":"Utah Canyon with Fall Colors 1","ispublic":1,"isfriend":0,"isfamily":0},{"id":"51494364741","owner":"11438529@N03","secret":"fb22df8d88","server":"65535","farm":66,"title":"Utah Canyon Glow 1","ispublic":1,"isfriend":0,"isfamily":0},{"id":"51495288240","owner":"11438529@N03","secret":"16f14ac0af","server":"65535","farm":66,"title":"Utah Canyon Glow 2","ispublic":1,"isfriend":0,"isfamily":0},{"id":"51495287815","owner":"11438529@N03","secret":"b1f7e1a623","server":"65535","farm":66,"title":"Utah Canyon Glow 3","ispublic":1,"isfriend":0,"isfamily":0},{"id":"51494583358","owner":"11438529@N03","secret":"4d77cc85f1","server":"65535","farm":66,"title":"Utah Canyon with Fall Colors 2","ispublic":1,"isfriend":0,"isfamily":0},{"id":"51494582603","owner":"11438529@N03","secret":"63106bfc55","server":"65535","farm":66,"title":"Utah Canyon with Fall Colors 3","ispublic":1,"isfriend":0,"isfamily":0},{"id":"51493564057","owner":"11438529@N03","secret":"f42d17d308","server":"65535","farm":66,"title":"Angelic View","ispublic":1,"isfriend":0,"isfamily":0},{"id":"51495070049","owner":"11438529@N03","secret":"efa9114aea","server":"65535","farm":66,"title":"_GLV4177-Edit-2.jpg","ispublic":1,"isfriend":0,"isfamily":0},{"id":"51493560957","owner":"132770825@N04","secret":"3e892a0aba","server":"65535","farm":66,"title":"Juvenile Sora","ispublic":1,"isfriend":0,"isfamily":0},{"id":"51495067229","owner":"132770825@N04","secret":"553a986934","server":"65535","farm":66,"title":"Juvenile Sora","ispublic":1,"isfriend":0,"isfamily":0},{"id":"51493560837","owner":"132770825@N04","secret":"0d39e45d0f","server":"65535","farm":66,"title":"Juvenile Sora","ispublic":1,"isfriend":0,"isfamily":0},{"id":"51493549432","owner":"93084495@N04","secret":"a3de15b41b","server":"65535","farm":66,"title":"Attempt to Save an Ash Tree From Removal","ispublic":1,"isfriend":0,"isfamily":0},{"id":"51495055684","owner":"7202153@N03","secret":"42d09c4a22","server":"65535","farm":66,"title":"Kayaks - Kauai - Captain Andy's Na Pali Coast dinner and sunset tour","ispublic":1,"isfriend":0,"isfamily":0},{"id":"51494346911","owner":"7202153@N03","secret":"61b7833547","server":"65535","farm":66,"title":"Kauai - Captain Andy's Na Pali Coast dinner and sunset tour - big boats","ispublic":1,"isfriend":0,"isfamily":0},{"id":"51493554287","owner":"193679653@N05","secret":"c03514519b","server":"65535","farm":66,"title":"DSC_9285","ispublic":1,"isfriend":0,"isfamily":0},{"id":"51494349536","owner":"73561613@N06","secret":"d1b00bc7ea","server":"65535","farm":66,"title":"Red Wattlebird peeking out from amongst the red bottlebrush flowers","ispublic":1,"isfriend":0,"isfamily":0},{"id":"51495047644","owner":"72935397@N07","secret":"c67f9f2b23","server":"65535","farm":66,"title":"This is Acadia","ispublic":1,"isfriend":0,"isfamily":0},{"id":"51493539607","owner":"190864993@N07","secret":"66396611c9","server":"65535","farm":66,"title":"| m o r n i n g | s t r e a m |","ispublic":1,"isfriend":0,"isfamily":0},{"id":"51494334801","owner":"21096258@N05","secret":"d2b253dc67","server":"65535","farm":66,"title":"Semipalmated Plover","ispublic":1,"isfriend":0,"isfamily":0},{"id":"51495258240","owner":"21096258@N05","secret":"6c98e5426d","server":"65535","farm":66,"title":"Semipalmated Plover","ispublic":1,"isfriend":0,"isfamily":0},{"id":"51495042339","owner":"21096258@N05","secret":"8f7c4d5683","server":"65535","farm":66,"title":"Yellowlegs","ispublic":1,"isfriend":0,"isfamily":0},{"id":"51495042369","owner":"21096258@N05","secret":"6ce29eb9a9","server":"65535","farm":66,"title":"Yellowlags","ispublic":1,"isfriend":0,"isfamily":0},{"id":"51493535912","owner":"21096258@N05","secret":"e9758dee7c","server":"65535","farm":66,"title":"Stilt Sandpiper","ispublic":1,"isfriend":0,"isfamily":0},{"id":"51495256605","owner":"52620043@N03","secret":"6eec455ca0","server":"65535","farm":66,"title":"","ispublic":1,"isfriend":0,"isfamily":0},{"id":"51495039744","owner":"52620043@N03","secret":"051222e1ac","server":"65535","farm":66,"title":"","ispublic":1,"isfriend":0,"isfamily":0},{"id":"30046046105","owner":"82092988@N03","secret":"629dc7a4f1","server":"8624","farm":9,"title":"25092016_chin up!","ispublic":1,"isfriend":0,"isfamily":0},{"id":"51495245440","owner":"8904060@N06","secret":"2a7d98663e","server":"65535","farm":66,"title":"Standing on End","ispublic":1,"isfriend":0,"isfamily":0},{"id":"51495238050","owner":"189719161@N04","secret":"93078505ba","server":"65535","farm":66,"title":"Goose","ispublic":1,"isfriend":0,"isfamily":0},{"id":"51494306756","owner":"14320768@N07","secret":"9ab2712af2","server":"65535","farm":66,"title":"082221 - Storm Chasing Nebraska Supercells 060","ispublic":1,"isfriend":0,"isfamily":0},{"id":"51495230975","owner":"190864993@N07","secret":"9819945e53","server":"65535","farm":66,"title":"{ Y e l l o w . C a n v a s }","ispublic":1,"isfriend":0,"isfamily":0},{"id":"51493501592","owner":"14320768@N07","secret":"4d5a963efe","server":"65535","farm":66,"title":"082221 - Storm Chasing Nebraska Supercells 059","ispublic":1,"isfriend":0,"isfamily":0},{"id":"51494516803","owner":"7788428@N06","secret":"629c592afc","server":"65535","farm":66,"title":"A Family Get Away Dream","ispublic":1,"isfriend":0,"isfamily":0},{"id":"51494287286","owner":"99681796@N08","secret":"e5a795b9bb","server":"65535","farm":66,"title":"'Orit' (light,luz) oil on canvas 1mx1.20 Sarah Zambiasi 2021","ispublic":1,"isfriend":0,"isfamily":0},{"id":"51495008994","owner":"191180205@N04","secret":"19165f1e2b","server":"65535","farm":66,"title":"Hiding pit stop","ispublic":1,"isfriend":0,"isfamily":0},{"id":"51494508388","owner":"142010311@N03","secret":"49c2198798","server":"65535","farm":66,"title":"Deer at Tinker Nature Park","ispublic":1,"isfriend":0,"isfamily":0},{"id":"51493488352","owner":"142010311@N03","secret":"6ea6054900","server":"65535","farm":66,"title":"Flower at Conservatory","ispublic":1,"isfriend":0,"isfamily":0},{"id":"51493488047","owner":"142010311@N03","secret":"ba02657cd2","server":"65535","farm":66,"title":"Flower at Conservatory","ispublic":1,"isfriend":0,"isfamily":0},{"id":"51493487602","owner":"14320768@N07","secret":"f2a7c48097","server":"65535","farm":66,"title":"082221 - Storm Chasing Nebraska Supercells 058","ispublic":1,"isfriend":0,"isfamily":0},{"id":"51495210540","owner":"142010311@N03","secret":"d54cf852d1","server":"65535","farm":66,"title":"Flower at Conservatory","ispublic":1,"isfriend":0,"isfamily":0},{"id":"51494994204","owner":"142010311@N03","secret":"fa1db0149d","server":"65535","farm":66,"title":"Flower at Conservatory","ispublic":1,"isfriend":0,"isfamily":0},{"id":"51493484377","owner":"21413492@N04","secret":"aae9390ed2","server":"65535","farm":66,"title":"IMG_4669","ispublic":1,"isfriend":0,"isfamily":0},{"id":"51494990139","owner":"144153750@N07","secret":"30d2cfec5e","server":"65535","farm":66,"title":"Sometimes . . . Sometimes I think that nature has humor . . .","ispublic":1,"isfriend":0,"isfamily":0},{"id":"51494277891","owner":"193499928@N06","secret":"b0523ee891","server":"65535","farm":66,"title":"FLORES POR MI CAMINO.","ispublic":1,"isfriend":0,"isfamily":0},{"id":"51493477917","owner":"92496593@N08","secret":"4a02538dd0","server":"65535","farm":66,"title":"Sveti Stefan","ispublic":1,"isfriend":0,"isfamily":0},{"id":"51494984789","owner":"193799292@N04","secret":"67ed77cd36","server":"65535","farm":66,"title":"Quite Walk","ispublic":1,"isfriend":0,"isfamily":0},{"id":"51494974049","owner":"47705525@N06","secret":"6e0668cca2","server":"65535","farm":66,"title":"lipstick","ispublic":1,"isfriend":0,"isfamily":0},{"id":"51493459272","owner":"7788428@N06","secret":"f71e1a7523","server":"65535","farm":66,"title":"Appreciating the Beauty of Land & Water","ispublic":1,"isfriend":0,"isfamily":0},{"id":"51483919223","owner":"59238173@N07","secret":"f69959ea17","server":"65535","farm":66,"title":"Meteora, Kalambaka, Greece","ispublic":1,"isfriend":0,"isfamily":0},{"id":"51482916727","owner":"59238173@N07","secret":"04117cb930","server":"65535","farm":66,"title":"Dragon's Lair, Kastoria, Greece","ispublic":1,"isfriend":0,"isfamily":0},{"id":"51493457112","owner":"136284917@N04","secret":"0f80d5ee55","server":"65535","farm":66,"title":"San Quentin Beach Outlook","ispublic":1,"isfriend":0,"isfamily":0},{"id":"51495179445","owner":"193499928@N06","secret":"2a2671565d","server":"65535","farm":66,"title":"ACOMPA\u00d1ADA.","ispublic":1,"isfriend":0,"isfamily":0},{"id":"51494242461","owner":"183132100@N02","secret":"9871e9341d","server":"65535","farm":66,"title":"Red-winged Blackbird 9-18-2021","ispublic":1,"isfriend":0,"isfamily":0},{"id":"51494451828","owner":"159210083@N04","secret":"24838f638f","server":"65535","farm":66,"title":"Summer Sunset","ispublic":1,"isfriend":0,"isfamily":0},{"id":"51494937849","owner":"159210083@N04","secret":"ce23d2986e","server":"65535","farm":66,"title":"Summer Sunset","ispublic":1,"isfriend":0,"isfamily":0},{"id":"51494909224","owner":"7788428@N06","secret":"88deee8e56","server":"65535","farm":66,"title":"For the Love of the Land","ispublic":1,"isfriend":0,"isfamily":0},{"id":"51495164345","owner":"29848963@N03","secret":"0369934745","server":"65535","farm":66,"title":"10933 - grass yellow","ispublic":1,"isfriend":0,"isfamily":0},{"id":"51494232996","owner":"67519047@N03","secret":"fd5aef7c80","server":"65535","farm":66,"title":"#sonnenuntergang #sonnenuntergang\ud83c\udf05 #sonnenunterganghimmel #sunset #sunsetlover #sunsetphotography #hobbyfotografie #atardecer #hobbyphotography #natur #nature #naturephotography #deutschlandviews #bestgermanpics #skyaddic #topsunsetshots #picofthe","ispublic":1,"isfriend":0,"isfamily":0},{"id":"51494937574","owner":"124435878@N03","secret":"85140c159c","server":"65535","farm":66,"title":"DJI_0074","ispublic":1,"isfriend":0,"isfamily":0}]},"stat":"ok"}
